mileage,num_services,lemon
20000.0,24.0,0
110000.0,24.0,0
90000.0,4.0,1
160000.0,5.0,1
200000.0,20.0,0
420000.0,5.0,1
380000.0,20.0,0
420000.0,15.0,1
100000.0,19.0,0
60000.0,17.0,0
350000.0,5.0,1
350000.0,13.0,1
100000.0,8.0,0
40000.0,11.0,0
260000.0,10.0,1
220000.0,6.0,1
130000.0,13.0,0
170000.0,18.0,0
290000.0,6.0,1
210000.0,13.0,0
300000.0,17.0,0